time,direction,bytes,latency,bps,duration,serverTime,responseSize,loadedLatencies
1706154918172,download,100000,21.999880000000005,15871566.756627662,50.999880000000005,74.00012,101181,
1706154920788,download,100000,22.000202,31134219.64952426,26.000202,61.999798,101187,27.999943000000002 23.000265 26.000056999999998 26.999756000000005 21.000078000000002
1706154920933,download,100000,20.000067,32380073.221403766,25.000067,69.999933,101188,27.000069000000003
1706154921066,download,100000,27.000067,25297447.033470273,32.000067,69.999933,101190,
1706154921197,download,100000,19.000012999999996,32380783.161992762,25.000012999999996,88.999987,101190,20.000059
1706154921324,download,100000,31.000067,23129327.152430877,35.000067,69.999933,101191,
1706154921457,download,100000,17.999920000000003,35197339.81683414,22.999920000000003,91.00008,101192,24.999903000000003
1706154921566,download,100000,18.999900999999994,32379328.22213977,24.999900999999994,71.000099,101185,
1706154921662,download,100000,20.000006,32380792.228609867,25.000006,55.999994,101190,20.999912000000002
1706154921768,download,100000,22.000109000000002,29979434.52746802,27.000109000000002,63.999891,101181,36.00012 27.999924 34.00014899999999 25.999890999999998 20.00009 20.999893 20.000183 18.000027000000003 24.000036 21.000099 28.000017 25.999861000000003 25.000203999999997 22.000067 28.000038000000004 25.000076000000007 26.000120000000003 26.999924 21.000256 24.000048 35.000162 57.000111 19.000152999999997 64.999924 22.999966 55.999945 21.000099 57.000038 34.999872 53.000183 39.000162 35.999996 34.000017 81.99999600000001 71.00010900000001 17.000067 24.999921999999998 24.999954000000002 29.00009 25.000202 40.000172 37.999945 27.999975 18.000027000000003 23.999924 29.000067 35.000069 16.000027000000003 29.999924 29.000120000000003 24.000048 31.999872000000003 25.000183 28.999944999999997 28.000069000000003 26.999882 20.000059 28.000141 29.000110999999997 27.000078000000002 27.000110999999997 23.000017 32.000038 52.999924 55.000023 48.999994 56.999975 41.999954 30.000263000000004 40.00009 35.000235 25.000118 28.000162000000003 44.999985 23.999912000000002 17.999964 19.000275000000002 19.000214 21.000078000000002 19.000036 20.000027000000003 19.999954000000002 19.000109000000002 21.000017
1706154922159,download,1000000,22.00007099999999,92083694.96617998,87.00007099999999,273.999929,1001411,21.00009
1706154922341,download,1000000,21.000118,101409468.78079347,79.000118,73.999882,1001420,
1706154922511,download,1000000,18.000045999999998,104043470.31169306,77.000046,72.999954,1001419,
1706154922679,download,1000000,24.999943000000002,95373017.09835683,83.999943,65.000057,1001416,24.000048
1706154922881,download,1000000,20.000118,71529353.21014573,112.000118,73.999882,1001412,
1706154923049,download,1000000,19.000024999999994,101411005.8825931,79.000025,75.999975,1001434,
1706154923217,download,1000000,20.999880000000005,100142050.21307531,79.99988,74.00012,1001419,30.999924
1706154923377,download,1000000,21.99987,98907022.9371973,80.99987,64.00013,1001432,
1706154923529,upload,100000,40.999859,6813559.322033898,118,77.000141,958,
1706154923676,upload,100000,29.000076000000007,7376146.7889908245,109,79.999924,952,21.000148999999993
1706154923808,upload,100000,43.000088000000005,7309090.909090908,110,66.999912,947,
1706154923922,upload,100000,29.999944999999997,11166666.666666666,72,42.000055,961,
1706154924066,upload,100000,26.000118,8039999.999999998,100,73.999882,961,
1706154924194,upload,100000,27.000056999999998,9241379.310344826,87,59.999943,954,18.000120000000003
1706154924297,upload,100000,29.000038000000004,11652173.913043475,69,39.999962,950,
1706154924397,upload,100000,28.000110999999997,11652173.913043475,69,40.999889,950,
1706154938402,upload,1000000,42.999792000000014,18917647.058823526,425,382.000208,952,27.000141
1706154938826,upload,1000000,28.000270999999998,20775193.79844961,387,358.999729,962,22.000027000000003
1706154939379,upload,1000000,42.000117999999986,16374745.417515274,491,448.999882,966,28.000110999999997
1706154939795,upload,1000000,29.000031999999976,20721649.484536078,388,358.999968,958,52.999819
1706154940257,upload,1000000,23.999990000000025,20668380.46272493,389,365.00001,956,78.000057
1706154940680,upload,1000000,37.999866,20201005.025125626,398,360.000134,951,
1706154941439,download,10000000,24.99995,129498172.28949615,617.99995,98.00005,10003733,59.999914 52.999903
1706154942167,download,10000000,25.999807000000004,129289345.64272004,618.999807,73.000193,10003760,36.000141
1706154942912,download,10000000,28.000148999999993,128459192.39097966,623.000149,80.999851,10003762,42.000162
1706154943653,download,10000000,27.000045999999998,129080816.22948782,620.000046,72.999954,10003764,20.000017 42.000109
1706154944376,download,10000000,21.999827999999994,130342512.0829187,613.999828,70.000172,10003785,40.000111
1706154945118,download,10000000,19.000036,130768005.37965982,612.000036,62.999964,10003753,44.00012
1706154948983,upload,10000000,40.000223000000005,21589688.506981734,3724,3683.999777,958,64.00017199999999 93.000057 54.000036 23.000078000000002 21.00013 27.000069000000003 16.999924
1706154952732,upload,10000000,40.000136999999995,22124380.847550906,3634,3593.999863,955,21.000006 35.000059 25.999966 21.000235000000004 24.000006 27.00013 33.999849 17.000110999999997
1706154956481,upload,10000000,28.999989999999798,22063666.300768383,3644,3615.00001,956,21.000141 28.000015000000005 23.000006 29.999996000000003 22.999966 28.000017 35.00013
1706154960236,upload,10000000,23.999920000000202,22240663.900414933,3615,3591.00008,953,26.000244000000002 27.00009 23.000152999999997 30.999975 30.000017 25.000027000000003 30.00009
1706154961902,download,25000000,19.000139000000004,133107835.99335381,1503.000139,70.999861,25007637,27.00009 48.999903 57.000179
1706154963613,download,25000000,21.000200000000007,133019280.18360637,1504.0002,84.9998,25007628,68.999975 49.00009 48.999975
1706154965296,download,25000000,25.999877999999995,131966796.89970264,1515.999878,97.000122,25007706,27.000059 51.000162 42.000256
1706154966976,download,25000000,19.000041999999993,133107823.29306151,1503.000042,118.999958,25007633,18.999996000000003 43.000069 36.999900999999994