Matériel,Valeur,Description
Yaseu FT-100d,600,radio Amateur HF/VHF/UHF
Autres radios,400,"radios portables, tuners, manuels"
Bibliothèque,500,différents manuels techniques
curie,1000,ordinateur Intel NUC BOXNUC6I3SYH 16GiB 1.5TB clavier WASD custom
marcos,500,serveur maison custom
Moniteurs,500,collection d'écrans usagés
Thinkpad x120e,500,laptop usagé
Panasonic Toughbook CF-W5,500,laptop usagé
Total,4500,
