digraph workflow {
        label="Debian packaging workflow, 2017"
        labelloc=top
        dget [ href="https://manpages.debian.org/dget" ]
        dgit [ href="https://manpages.debian.org/dgit" ]
        git [ href="https://manpages.debian.org/git" label="git, ..." ]
        debmake [ href="https://www.debian.org/doc/manuals/debmake-doc/index.en.html" ]
        dbp [ label="dpkg-buildpackage" href="https://manpages.debian.org/dpkg-buildpackage" ]
        source [ shape=box label="source package (.dsc, ...)", href="https://wiki.debian.org/Packaging/SourcePackage" ];
        binary [ shape=box label="binary package(s) (.changes, .deb)" href="https://wiki.debian.org/Packaging/BinaryPackage" ];
        BTS [ shape=box href="https://wiki.debian.org/BTS" ];
        quilt [ href="https://wiki.debian.org/UsingQuilt" ];
        dch [ href="https://manpages.debian.org/dch" ];
        lintian [ href="https://manpages.debian.org/lintian" ];
        # those should link to the package-cycle stuff!
        archive [ shape=box label="FTP archive" ]
        ppa [ shape=box label="PPAs, ..." ]

        { "apt-get source", dget, debmake, dgit, git } -> source;
        source -> dbp -> binary;
        source -> quilt -> source
        source -> dch -> source
        source -> { sbuild, gbp } -> dbp
        gbp -> sbuild
        binary -> lintian -> source
        binary -> dput -> { archive, ppa } -> "apt-get install";
        source -> debdiff -> BTS -> quilt

        {
                rank = same;
                quilt
                dch
                dbp
        }
        {
                rank = same;
                dput [ href="https://manpages.debian.org/dput" ];
                debdiff [ href="https://manpages.debian.org/debdiff" ];
        }
        {
                rank = same;
                source;
                sbuild [ href="https://wiki.debian.org/sbuild" ];
                gbp [ href="https://manpages.debian.org/git-buildpackage" label="git-buildpackage" ];
        }
}
